module github.com/wojoinc/chip8

go 1.22

toolchain go1.22.1

require (
	github.com/gen2brain/raylib-go/raygui v0.0.0-20240807111636-8861ee437da9
	github.com/gen2brain/raylib-go/raylib v0.0.0-20240807111636-8861ee437da9
)

require (
	github.com/ebitengine/purego v0.7.1 // indirect
	golang.org/x/exp v0.0.0-20240506185415-9bf2ced13842 // indirect
	golang.org/x/sys v0.20.0 // indirect
)
